1	10000	738		05	19	26	31	43	58	60	77	84	92	

2	0.9999	1000		01	17	22	36	48	50	64	79	83	95	

3	0.499975	1000		01	19	25	36	42	50	68	74	87	93	

4	0.9999	1000		06	13	29	37	44	52	60	75	81	98	

5	10000	224		08	11	23	37	40	52	65	79	86	94	

6	0.499975	1000		00	17	24	36	48	59	61	73	85	92	

7	0.9999	1000		05	18	23	37	40	52	69	71	86	94	

8	0.9999	1000		01	14	28	35	42	59	67	70	83	96	

9	10000	350		03	17	20	34	49	51	65	72	88	96	

10	10000	228		05	10	22	39	47	51	63	78	86	94	

11	10000	317		04	18	20	39	46	52	67	71	83	95	

12	0.499975	1000		05	12	20	36	48	51	63	79	87	94	

13	0.499975	1000		05	10	29	34	42	58	66	73	81	97	

14	0.333322	1000		08	15	29	32	46	53	67	70	84	91	

15	10000	198		01	13	27	39	44	58	65	70	82	96	

16	0.499975	1000		07	13	22	36	48	50	64	71	89	95	

17	10000	239		09	12	28	31	44	57	60	76	83	95	

18	0.499975	1000		06	18	20	35	43	51	64	77	89	92	

19	0.9999	1000		08	12	24	36	40	59	61	73	85	97	

20	0.499975	1000		03	15	26	32	40	57	64	78	81	99	

21	0.9999	1000		01	14	27	30	48	55	62	79	83	96	

22	10000	666		06	13	27	30	44	58	61	75	89	92	

23	0.499975	1000		03	16	29	35	40	54	67	72	88	91	

24	0.9999	1000		07	19	23	30	42	58	65	71	84	96	

25	0.9999	1000		04	16	28	32	45	57	60	71	83	99	

